tests/Verifrog.Tests/test_counter.vcd
$timescale 1ps $end
$scope module counter $end
$var wire 1 ! clk $end
$var wire 1 " rst_n $end
$var wire 1 # enable $end
$var reg 8 $ count [7:0] $end
$var wire 1 % overflow $end
$upscope $end
$enddefinitions $end
#0
0!
0"
0#
b00000000 $
0%
#10
1!
#20
0!
#30
1!
#40
0!
1"
#50
1!
#60
0!
1#
#70
1!
#80
0!
#90
1!
b00000001 $
#100
0!
#110
1!
b00000010 $
#120
0!
#130
1!
b00000011 $
#140
0!
#150
1!
b00000100 $
#160
0!
#170
1!
b00000101 $
